{
    "melon":{
        "menuId":54020101,
        "count":10,
        "page":5,
        "totalPages":10,
        "rankDay":"20170727",
        "rankHour":"10",
        "songs":{
            "song":[
                {
                    "songId":4786735,
                    "songName":"Marry Me",
                    "artists":{
                        "artist":[
                            {
                                "artistId":566431,
                                "artistName":"마크툽 (MAKTUB)"
                            },
                            {
                                "artistId":441487,
                                "artistName":"구윤회"
                            }
                        ]
                    },
                    "albumId":2271467,
                    "albumName":"마크툽 프로젝트 Vol.03",
                    "currentRank":41,
                    "pastRank":42,
                    "playTime":261,
                    "issueDate":"20140804",
                    "isTitleSong":"true",
                    "isHitSong":"false",
                    "isAdult":"false",
                    "isFree":"false"
                },
                {
                    "songId":30495638,
                    "songName":"아침에 (Feat. Bryn)",
                    "artists":{
                        "artist":[
                            {
                                "artistId":907416,
                                "artistName":"양홍원 (Young B)"
                            }
                        ]
                    },
                    "albumId":10074941,
                    "albumName":"아침에",
                    "currentRank":42,
                    "pastRank":46,
                    "playTime":195,
                    "issueDate":"20170628",
                    "isTitleSong":"true",
                    "isHitSong":"false",
                    "isAdult":"false",
                    "isFree":"false"
                },
                {
                    "songId":30519034,
                    "songName":"ANTI (Feat. G.Soul)",
                    "artists":{
                        "artist":[
                            {
                                "artistId":602056,
                                "artistName":"지코 (ZICO)"
                            }
                        ]
                    },
                    "albumId":10078915,
                    "albumName":"TELEVISION",
                    "currentRank":43,
                    "pastRank":41,
                    "playTime":216,
                    "issueDate":"20170712",
                    "isTitleSong":"true",
                    "isHitSong":"false",
                    "isAdult":"false",
                    "isFree":"false"
                },
                {
                    "songId":8055706,
                    "songName":"여왕의 기사",
                    "artists":{
                        "artist":[
                            {
                                "artistId":640891,
                                "artistName":"뉴이스트"
                            }
                        ]
                    },
                    "albumId":2667560,
                    "albumName":"Q is.",
                    "currentRank":44,
                    "pastRank":47,
                    "playTime":193,
                    "issueDate":"20160217",
                    "isTitleSong":"true",
                    "isHitSong":"false",
                    "isAdult":"false",
                    "isFree":"false"
                },
                {
                    "songId":30349593,
                    "songName":"사랑이 잘 (With 오혁)",
                    "artists":{
                        "artist":[
                            {
                                "artistId":261143,
                                "artistName":"아이유"
                            }
                        ]
                    },
                    "albumId":10052968,
                    "albumName":"사랑이 잘",
                    "currentRank":45,
                    "pastRank":44,
                    "playTime":195,
                    "issueDate":"20170407",
                    "isTitleSong":"true",
                    "isHitSong":"false",
                    "isAdult":"false",
                    "isFree":"false"
                },
                {
                    "songId":30447547,
                    "songName":"LONELY",
                    "artists":{
                        "artist":[
                            {
                                "artistId":473181,
                                "artistName":"씨스타"
                            }
                        ]
                    },
                    "albumId":10067347,
                    "albumName":"LONELY",
                    "currentRank":46,
                    "pastRank":45,
                    "playTime":208,
                    "issueDate":"20170531",
                    "isTitleSong":"true",
                    "isHitSong":"false",
                    "isAdult":"false",
                    "isFree":"false"
                },
                {
                    "songId":30244931,
                    "songName":"봄날",
                    "artists":{
                        "artist":[
                            {
                                "artistId":672375,
                                "artistName":"방탄소년단"
                            }
                        ]
                    },
                    "albumId":10037969,
                    "albumName":"YOU NEVER WALK ALONE",
                    "currentRank":47,
                    "pastRank":52,
                    "playTime":274,
                    "issueDate":"20170213",
                    "isTitleSong":"true",
                    "isHitSong":"false",
                    "isAdult":"false",
                    "isFree":"false"
                },
                {
                    "songId":30408193,
                    "songName":"맞지?",
                    "artists":{
                        "artist":[
                            {
                                "artistId":990909,
                                "artistName":"언니쓰"
                            }
                        ]
                    },
                    "albumId":10061398,
                    "albumName":"언니들의 슬램덩크 시즌 2",
                    "currentRank":48,
                    "pastRank":51,
                    "playTime":206,
                    "issueDate":"20170512",
                    "isTitleSong":"true",
                    "isHitSong":"false",
                    "isAdult":"false",
                    "isFree":"false"
                },
                {
                    "songId":30163110,
                    "songName":"좋다고 말해",
                    "artists":{
                        "artist":[
                            {
                                "artistId":792022,
                                "artistName":"볼빨간사춘기"
                            }
                        ]
                    },
                    "albumId":10024816,
                    "albumName":"Full Album RED PLANET `Hidden Track`",
                    "currentRank":49,
                    "pastRank":50,
                    "playTime":201,
                    "issueDate":"20161221",
                    "isTitleSong":"true",
                    "isHitSong":"false",
                    "isAdult":"false",
                    "isFree":"false"
                },
                {
                    "songId":30541905,
                    "songName":"Sunday (Feat. 헤이즈,
                     박재범)",
                    "artists":{
                        "artist":[
                            {
                                "artistId":858851,
                                "artistName":"GroovyRoom (그루비룸)"
                            }
                        ]
                    },
                    "albumId":10082152,
                    "albumName":"EVERYWHERE",
                    "currentRank":50,
                    "pastRank":49,
                    "playTime":182,
                    "issueDate":"20170724",
                    "isTitleSong":"true",
                    "isHitSong":"false",
                    "isAdult":"false",
                    "isFree":"false"
                }
            ]
        }
    }
}